################################################################################

select * from logs where query LIKE '%job%';

################################################################################
Following is output return by query:

4077443B5801F0C3	970916182623	job openings
4077443B5801F0C3	970916182752	job openings listings 
4077443B5801F0C3	970916182823	agricultural job listings
4077443B5801F0C3	970916182834	agricultural job listings employdogst 
4077443B5801F0C3	970916182942	job listings
83607290B8BEAFC6	970916070440	jobs=hong kong
D5D8220D36969861	970916222708	job interview tips
D5D8220D36969861	970916224215	job interview tips
0E10DD8EB5EEB192	970916134219	jobs at the university of minnesota
567854C718273984	970916021936	part time jobs
567854C718273984	970916022012	part time jobs
567854C718273984	970916022043	part time jobs
567854C718273984	970916022117	part time jobs
567854C718273984	970916022202	part time jobs
567854C718273984	970916022313	home jobs
567854C718273984	970916022444	home jobs
