######################################################################################################################################################################################################################################################################################################

db.cl.aggregate([
    { 
        $group: { 
            _id: null,
            "RatioSum": {
                $sum: { $cond: [ { $eq: [ "$friendsCount", 0 ] }, "Unable to divide friendsCount is 0", {"$divide":["$followersCount", "$friendsCount"]} ] }
            },
            "Count": {
                $sum: {
                    $cond: [{
                        $eq: [ "$friendsCount", 0]
                    }, 0, 1]
                }
            }, 

        },
    },
    {
        $project: {
            "RatioSum": "$RatioSum",
            "Count": "$Count",
            "AverageRatio": {
                $divide: ["$RatioSum", "$Count"]
            },  
        }
    }
]).pretty()

######################################################################################################################################################################################################################################################################################################

{
	"_id" : null,
	"RatioSum" : 3593875.2407384487,
	"Count" : 23006,
	"AverageRatio" : 156.2146935903003
}
