898	"36.0"
888	"31.0"
886	"34.0"
877	"23.0"
876	"35.0"
875	"33.0"
867	"28.0"
861	"30.0"
858	"37.0"
841	"25.0"
835	"27.0"
828	"32.0"
827	"38.0"
816	"39.0"
813	"29.0"
808	"41.0"
798	"24.0"
794	"40.0"
785	"26.0"
780	"42.0"
770	"43.0"
765	"22.0"
753	"20.0"
737	"46.0"
734	"45.0"
724	"44.0"
720	"21.0"
712	"19.0"
708	"47.0"
602	"50.0"
595	"51.0"
577	"49.0"
550	"18.0"
543	"48.0"
478	"52.0"
464	"53.0"
419	"55.0"
415	"54.0"
395	"17.0"
366	"56.0"
366	"58.0"
358	"57.0"
355	"59.0"
312	"60.0"
300	"61.0"
258	"62.0"
230	"63.0"
208	"64.0"
178	"65.0"
151	"67.0"
150	"66.0"
120	"68.0"
108	"69.0"
89	"70.0"
72	"71.0"
67	"72.0"
64	"73.0"
51	"74.0"
46	"76.0"
45	"75.0"
43	"90.0"
29	"77.0"
23	"78.0"
22	"79.0"
22	"80.0"
20	"81.0"
12	"82.0"
10	"84.0"
6	"83.0"
3	"85.0"
3	"88.0"
1	"86.0"
1	"87.0"
